…
``` r
all_billionaires %>% 
  count(name, sort = TRUE)
```

    ## # A tibble: 39 x 2
    ##                name     n
    ##               <chr> <int>
    ##  1       Bill Gates    18
    ##  2   Warren Buffett    18
    ##  3    Larry Ellison    14
    ##  4      Carlos Slim    13
    ##  5   Amancio Ortega    10
    ##  6   Lakshmi Mittal     7
    ##  7       Paul Allen     7
    ##  8  Bernard Arnault     6
    ##  9       Jim Walton     6
    ## 10 Prince Al-Waleed     6
    ## # ... with 29 more rows
…
